{"photos":{"page":1,"pages":120183,"perpage":10,"total":"1201824","photo":[{"id":"41192965510","owner":"100890540@N08","secret":"6f888aa98a","server":"1829","farm":2,"title":"Honda Prelude EX","ispublic":1,"isfriend":0,"isfamily":0},{"id":"28134508357","owner":"64673841@N04","secret":"d8437a9ecb","server":"1811","farm":2,"title":"DSC01495","ispublic":1,"isfriend":0,"isfamily":0},{"id":"43002950591","owner":"64673841@N04","secret":"7540719a91","server":"879","farm":1,"title":"DSC01496","ispublic":1,"isfriend":0,"isfamily":0},{"id":"42101419745","owner":"64673841@N04","secret":"673d19a177","server":"1773","farm":2,"title":"DSC01497","ispublic":1,"isfriend":0,"isfamily":0},{"id":"42101416375","owner":"64673841@N04","secret":"7afa8efdd1","server":"1836","farm":2,"title":"DSC01498","ispublic":1,"isfriend":0,"isfamily":0},{"id":"43002944441","owner":"64673841@N04","secret":"9f317f1afd","server":"1790","farm":2,"title":"DSC01501","ispublic":1,"isfriend":0,"isfamily":0},{"id":"43002942111","owner":"64673841@N04","secret":"b840154f8b","server":"1800","farm":2,"title":"DSC01502","ispublic":1,"isfriend":0,"isfamily":0},{"id":"29130719138","owner":"64673841@N04","secret":"3cd85c57fd","server":"1824","farm":2,"title":"DSC01503","ispublic":1,"isfriend":0,"isfamily":0},{"id":"42953365942","owner":"64673841@N04","secret":"9a49c60a7e","server":"1812","farm":2,"title":"DSC01504","ispublic":1,"isfriend":0,"isfamily":0},{"id":"29130711788","owner":"64673841@N04","secret":"9843733c1e","server":"1787","farm":2,"title":"DSC01505","ispublic":1,"isfriend":0,"isfamily":0}]},"stat":"ok"}
